{
  "page": 1,
  "results": [
    {
      "id": 1,
      "name": "data1"
    },
    {
      "id": 2,
      "name": "data2"
    },
    {
      "id": 3,
      "name": "data3"
    },
    {
      "id": 4,
      "name": "data4"
    },
    {
      "id": 5,
      "name": "data5"
    }
  ],
  "total_pages": 3,
  "total_results": 15
}
