{
  "page": 3,
  "results": [
    {
      "id": 11,
      "name": "data11"
    },
    {
      "id": 12,
      "name": "data12"
    },
    {
      "id": 13,
      "name": "data13"
    },
    {
      "id": 14,
      "name": "data14"
    },
    {
      "id": 15,
      "name": "data15"
    }
  ],
  "total_pages": 3,
  "total_results": 15
}
