{
  "page": 2,
  "results": [
    {
      "id": 6,
      "name": "data6"
    },
    {
      "id": 7,
      "name": "data7"
    },
    {
      "id": 8,
      "name": "data8"
    },
    {
      "id": 9,
      "name": "data9"
    },
    {
      "id": 10,
      "name": "data10"
    }
  ],
  "total_pages": 3,
  "total_results": 15
}
